animation{
  name = "walking",
  src_image = "entities/quest_entities.png",
  frame_delay = 250,
  frame_to_loop_on = 0,
  directions = {
    { x = 48, y = 32, frame_width = 16, frame_height = 16, origin_x = 8, origin_y = 13, num_frames = 3 },
    { x = 48, y = 32, frame_width = 16, frame_height = 16, origin_x = 8, origin_y = 13, num_frames = 3 },
    { x = 48, y = 32, frame_width = 16, frame_height = 16, origin_x = 8, origin_y = 13, num_frames = 3 },
    { x = 48, y = 32, frame_width = 16, frame_height = 16, origin_x = 8, origin_y = 13, num_frames = 3 },
  },
}
animation{
  name = "stopped",
  src_image = "entities/quest_entities.png",
  directions = {
    { x = 32, y = 32, frame_width = 16, frame_height = 16, origin_x = 8, origin_y = 13 },
    { x = 32, y = 32, frame_width = 16, frame_height = 16, origin_x = 8, origin_y = 13 },
    { x = 32, y = 32, frame_width = 16, frame_height = 16, origin_x = 8, origin_y = 13 },
    { x = 32, y = 32, frame_width = 16, frame_height = 16, origin_x = 8, origin_y = 13 },
  },
}
