animation{
  name = "stopped",
  src_image = "enemies/boss/rolling_bones/spike.png",
  frame_delay = 50,
  frame_to_loop_on = 0,
  directions = {
    { x = 16, y = 0, frame_width = 16, frame_height = 152, origin_x = 8, origin_y = 81 },
    { x = 16, y = 0, frame_width = 16, frame_height = 152, origin_x = 8, origin_y = 81 },
    { x = 16, y = 0, frame_width = 16, frame_height = 152, origin_x = 8, origin_y = 81 },
    { x = 16, y = 0, frame_width = 16, frame_height = 152, origin_x = 8, origin_y = 81 },
  },
}
animation{
  name = "destroyed",
  src_image = "enemies/boss/rolling_bones/spike_destroyed.png",
  frame_delay = 18,
  directions = {
    { x = 0, y = 0, frame_width = 16, frame_height = 152, origin_x = 8, origin_y = 81, num_frames = 42 },
    { x = 0, y = 0, frame_width = 16, frame_height = 152, origin_x = 8, origin_y = 81, num_frames = 42 },
    { x = 0, y = 0, frame_width = 16, frame_height = 152, origin_x = 8, origin_y = 81, num_frames = 42 },
    { x = 0, y = 0, frame_width = 16, frame_height = 152, origin_x = 8, origin_y = 81, num_frames = 42 },
  },
}
animation{
  name = "walking",
  src_image = "enemies/boss/rolling_bones/spike.png",
  frame_delay = 50,
  frame_to_loop_on = 0,
  directions = {
    { x = 0, y = 0, frame_width = 16, frame_height = 152, origin_x = 8, origin_y = 81, num_frames = 4 },
    { x = 0, y = 0, frame_width = 16, frame_height = 152, origin_x = 8, origin_y = 81, num_frames = 4 },
    { x = 0, y = 0, frame_width = 16, frame_height = 152, origin_x = 8, origin_y = 81, num_frames = 4 },
    { x = 0, y = 0, frame_width = 16, frame_height = 152, origin_x = 8, origin_y = 81, num_frames = 4 },
  },
}
