animation{
  name = "normal",
  src_image = "entities/misc/raft.png",
  frame_delay = 250,
  frame_to_loop_on = 0,
  directions = {
    { x = 0, y = 0, frame_width = 32, frame_height = 32, origin_x = 16, origin_y = 29, num_frames = 4 },
    { x = 0, y = 0, frame_width = 32, frame_height = 32, origin_x = 16, origin_y = 29, num_frames = 4 },
    { x = 0, y = 0, frame_width = 32, frame_height = 32, origin_x = 16, origin_y = 29, num_frames = 4 },
    { x = 0, y = 0, frame_width = 32, frame_height = 32, origin_x = 16, origin_y = 29, num_frames = 4 },
  },
}
