background_color{ 255, 255, 255 }
tile_pattern{
  id = "1",
  ground = "traversable",
  default_layer = 0,
  x = 0,
  y = 0,
  width = 8,
  height = 16,
  repeat_mode = "none",
}

tile_pattern{
  id = "10",
  ground = "wall",
  default_layer = 0,
  x = 0,
  y = 64,
  width = 16,
  height = 8,
  repeat_mode = "none",
}

tile_pattern{
  id = "100",
  ground = "traversable",
  default_layer = 0,
  x = 136,
  y = 112,
  width = 8,
  height = 8,
  repeat_mode = "none",
}

tile_pattern{
  id = "101",
  ground = "wall",
  default_layer = 0,
  x = 112,
  y = 104,
  width = 16,
  height = 8,
  repeat_mode = "horizontal",
}

tile_pattern{
  id = "102",
  ground = "wall",
  default_layer = 0,
  x = 128,
  y = 104,
  width = 8,
  height = 8,
}

tile_pattern{
  id = "103",
  ground = "traversable",
  default_layer = 0,
  x = 136,
  y = 104,
  width = 8,
  height = 8,
}

tile_pattern{
  id = "107",
  ground = "traversable",
  default_layer = 0,
  x = 144,
  y = 0,
  width = 32,
  height = 16,
}

tile_pattern{
  id = "108",
  ground = "traversable",
  default_layer = 0,
  x = 160,
  y = 16,
  width = 8,
  height = 8,
}

tile_pattern{
  id = "109",
  ground = "traversable",
  default_layer = 0,
  x = 168,
  y = 16,
  width = 8,
  height = 8,
}

tile_pattern{
  id = "11",
  ground = "wall",
  default_layer = 0,
  x = 0,
  y = 72,
  width = 16,
  height = 8,
  repeat_mode = "vertical",
}

tile_pattern{
  id = "110",
  ground = "traversable",
  default_layer = 0,
  x = 176,
  y = 0,
  width = 8,
  height = 8,
  repeat_mode = "none",
}

tile_pattern{
  id = "111",
  ground = "traversable",
  default_layer = 0,
  x = 184,
  y = 0,
  width = 16,
  height = 8,
  repeat_mode = "horizontal",
}

tile_pattern{
  id = "112",
  ground = "traversable",
  default_layer = 0,
  x = 200,
  y = 0,
  width = 8,
  height = 8,
  repeat_mode = "none",
}

tile_pattern{
  id = "113",
  ground = "wall",
  default_layer = 0,
  x = 176,
  y = 8,
  width = 8,
  height = 8,
  repeat_mode = "none",
}

tile_pattern{
  id = "114",
  ground = "wall",
  default_layer = 0,
  x = 184,
  y = 8,
  width = 16,
  height = 8,
  repeat_mode = "horizontal",
}

tile_pattern{
  id = "115",
  ground = "wall",
  default_layer = 0,
  x = 200,
  y = 8,
  width = 8,
  height = 8,
  repeat_mode = "none",
}

tile_pattern{
  id = "116",
  ground = "wall",
  default_layer = 0,
  x = 176,
  y = 16,
  width = 16,
  height = 8,
  repeat_mode = "horizontal",
}

tile_pattern{
  id = "117",
  ground = "traversable",
  default_layer = 0,
  x = 144,
  y = 24,
  width = 16,
  height = 16,
  repeat_mode = "none",
}

tile_pattern{
  id = "118",
  ground = "traversable",
  default_layer = 0,
  x = 160,
  y = 24,
  width = 16,
  height = 16,
  repeat_mode = "none",
}

tile_pattern{
  id = "119",
  ground = "wall",
  default_layer = 0,
  x = 144,
  y = 40,
  width = 8,
  height = 16,
  repeat_mode = "vertical",
}

tile_pattern{
  id = "12",
  ground = "wall",
  default_layer = 0,
  x = 0,
  y = 80,
  width = 16,
  height = 16,
  repeat_mode = "none",
}

tile_pattern{
  id = "120",
  ground = "wall",
  default_layer = 0,
  x = 152,
  y = 40,
  width = 16,
  height = 16,
}

tile_pattern{
  id = "121",
  ground = "wall",
  default_layer = 0,
  x = 168,
  y = 40,
  width = 8,
  height = 16,
  repeat_mode = "vertical",
}

tile_pattern{
  id = "122",
  ground = "wall",
  default_layer = 0,
  x = 176,
  y = 40,
  width = 8,
  height = 16,
  repeat_mode = "vertical",
}

tile_pattern{
  id = "123",
  ground = "wall",
  default_layer = 0,
  x = 200,
  y = 40,
  width = 8,
  height = 16,
  repeat_mode = "vertical",
}

tile_pattern{
  id = "124",
  ground = "wall",
  default_layer = 0,
  x = 144,
  y = 56,
  width = 8,
  height = 8,
  repeat_mode = "none",
}

tile_pattern{
  id = "125",
  ground = "wall",
  default_layer = 0,
  x = 152,
  y = 56,
  width = 8,
  height = 8,
  repeat_mode = "horizontal",
}

tile_pattern{
  id = "126",
  ground = "wall",
  default_layer = 0,
  x = 160,
  y = 56,
  width = 8,
  height = 8,
  repeat_mode = "horizontal",
}

tile_pattern{
  id = "127",
  ground = "wall",
  default_layer = 0,
  x = 168,
  y = 56,
  width = 8,
  height = 8,
  repeat_mode = "none",
}

tile_pattern{
  id = "128",
  ground = "wall",
  default_layer = 0,
  x = 144,
  y = 64,
  width = 32,
  height = 16,
  repeat_mode = "vertical",
}

tile_pattern{
  id = "129",
  ground = "wall",
  default_layer = 0,
  x = 176,
  y = 64,
  width = 32,
  height = 16,
  repeat_mode = "vertical",
}

tile_pattern{
  id = "13",
  ground = "traversable",
  default_layer = 0,
  x = 0,
  y = 96,
  width = 16,
  height = 24,
  repeat_mode = "none",
}

tile_pattern{
  id = "130",
  ground = "traversable",
  default_layer = 0,
  x = 144,
  y = 80,
  width = 64,
  height = 72,
  repeat_mode = "horizontal",
}

tile_pattern{
  id = "131",
  ground = "traversable",
  default_layer = 0,
  x = 128,
  y = 152,
  width = 16,
  height = 8,
  repeat_mode = "vertical",
}

tile_pattern{
  id = "132",
  ground = "traversable",
  default_layer = 0,
  x = 128,
  y = 160,
  width = 16,
  height = 32,
  repeat_mode = "none",
}

tile_pattern{
  id = "134",
  ground = "traversable",
  default_layer = 0,
  x = 144,
  y = 152,
  width = 24,
  height = 40,
}

tile_pattern{
  id = "135",
  ground = "traversable",
  default_layer = 0,
  x = 168,
  y = 152,
  width = 16,
  height = 40,
  repeat_mode = "horizontal",
}

tile_pattern{
  id = "136",
  ground = "traversable",
  default_layer = 0,
  x = 184,
  y = 152,
  width = 24,
  height = 40,
}

tile_pattern{
  id = "138",
  ground = "wall",
  default_layer = 0,
  x = 16,
  y = 112,
  width = 8,
  height = 16,
  repeat_mode = "vertical",
}

tile_pattern{
  id = "139",
  ground = "wall",
  default_layer = 0,
  x = 24,
  y = 112,
  width = 16,
  height = 16,
}

tile_pattern{
  id = "14",
  ground = "traversable",
  default_layer = 0,
  x = 0,
  y = 120,
  width = 16,
  height = 24,
  repeat_mode = "none",
}

tile_pattern{
  id = "140",
  ground = "traversable",
  default_layer = 0,
  x = 40,
  y = 112,
  width = 8,
  height = 16,
  repeat_mode = "vertical",
}

tile_pattern{
  id = "141",
  ground = "wall",
  default_layer = 0,
  x = 16,
  y = 128,
  width = 8,
  height = 16,
  repeat_mode = "vertical",
}

tile_pattern{
  id = "142",
  ground = "wall",
  default_layer = 0,
  x = 24,
  y = 128,
  width = 16,
  height = 16,
}

tile_pattern{
  id = "143",
  ground = "wall",
  default_layer = 0,
  x = 40,
  y = 128,
  width = 8,
  height = 16,
  repeat_mode = "vertical",
}

tile_pattern{
  id = "144",
  ground = "wall",
  default_layer = 0,
  x = 16,
  y = 144,
  width = 8,
  height = 16,
  repeat_mode = "vertical",
}

tile_pattern{
  id = "145",
  ground = "wall",
  default_layer = 0,
  x = 24,
  y = 144,
  width = 16,
  height = 16,
}

tile_pattern{
  id = "146",
  ground = "wall",
  default_layer = 0,
  x = 40,
  y = 144,
  width = 8,
  height = 16,
  repeat_mode = "vertical",
}

tile_pattern{
  id = "147",
  ground = "wall",
  default_layer = 0,
  x = 16,
  y = 160,
  width = 8,
  height = 16,
  repeat_mode = "vertical",
}

tile_pattern{
  id = "148",
  ground = "wall",
  default_layer = 0,
  x = 24,
  y = 160,
  width = 16,
  height = 16,
}

tile_pattern{
  id = "149",
  ground = "wall",
  default_layer = 0,
  x = 40,
  y = 160,
  width = 8,
  height = 16,
  repeat_mode = "vertical",
}

tile_pattern{
  id = "15",
  ground = "traversable",
  default_layer = 0,
  x = 0,
  y = 144,
  width = 16,
  height = 16,
  repeat_mode = "none",
}

tile_pattern{
  id = "151",
  ground = "wall",
  default_layer = 0,
  x = 16,
  y = 176,
  width = 16,
  height = 16,
}

tile_pattern{
  id = "152",
  ground = "wall",
  default_layer = 0,
  x = 32,
  y = 176,
  width = 16,
  height = 16,
}

tile_pattern{
  id = "153",
  ground = "traversable",
  default_layer = 0,
  x = 96,
  y = 120,
  width = 16,
  height = 16,
}

tile_pattern{
  id = "154",
  ground = "traversable",
  default_layer = 0,
  x = 96,
  y = 136,
  width = 16,
  height = 16,
}

tile_pattern{
  id = "155",
  ground = "traversable",
  default_layer = 0,
  x = 112,
  y = 120,
  width = 16,
  height = 16,
}

tile_pattern{
  id = "156",
  ground = "traversable",
  default_layer = 0,
  x = 112,
  y = 136,
  width = 16,
  height = 16,
}

tile_pattern{
  id = "157",
  ground = "traversable",
  default_layer = 0,
  x = 96,
  y = 152,
  width = 32,
  height = 16,
}

tile_pattern{
  id = "16",
  ground = "traversable",
  default_layer = 0,
  x = 0,
  y = 160,
  width = 16,
  height = 16,
  repeat_mode = "none",
}

tile_pattern{
  id = "17",
  ground = "traversable",
  default_layer = 0,
  x = 0,
  y = 176,
  width = 8,
  height = 8,
  repeat_mode = "none",
}

tile_pattern{
  id = "18",
  ground = "traversable",
  default_layer = 0,
  x = 0,
  y = 184,
  width = 8,
  height = 8,
  repeat_mode = "none",
}

tile_pattern{
  id = "19",
  ground = "traversable",
  default_layer = 0,
  x = 8,
  y = 176,
  width = 8,
  height = 16,
  repeat_mode = "horizontal",
}

tile_pattern{
  id = "2",
  ground = "traversable",
  default_layer = 0,
  x = 0,
  y = 16,
  width = 8,
  height = 16,
  repeat_mode = "vertical",
}

tile_pattern{
  id = "20",
  ground = "traversable",
  default_layer = 0,
  x = 16,
  y = 32,
  width = 8,
  height = 8,
}

tile_pattern{
  id = "21",
  ground = "traversable",
  default_layer = 0,
  x = 24,
  y = 32,
  width = 8,
  height = 8,
}

tile_pattern{
  id = "22",
  ground = "traversable",
  default_layer = 0,
  x = 24,
  y = 40,
  width = 8,
  height = 8,
}

tile_pattern{
  id = "23",
  ground = "traversable",
  default_layer = 0,
  x = 16,
  y = 48,
  width = 8,
  height = 8,
}

tile_pattern{
  id = "24",
  ground = "traversable",
  default_layer = 0,
  x = 24,
  y = 48,
  width = 8,
  height = 8,
}

tile_pattern{
  id = "25",
  ground = "traversable",
  default_layer = 0,
  x = 16,
  y = 56,
  width = 8,
  height = 8,
}

tile_pattern{
  id = "26",
  ground = "traversable",
  default_layer = 0,
  x = 24,
  y = 56,
  width = 8,
  height = 8,
}

tile_pattern{
  id = "27",
  ground = "traversable",
  default_layer = 0,
  x = 32,
  y = 48,
  width = 16,
  height = 16,
  repeat_mode = "none",
}

tile_pattern{
  id = "28",
  ground = "traversable",
  default_layer = 0,
  x = 32,
  y = 16,
  width = 16,
  height = 8,
}

tile_pattern{
  id = "29",
  ground = "traversable",
  default_layer = 0,
  x = 32,
  y = 24,
  width = 16,
  height = 8,
  repeat_mode = "none",
}

tile_pattern{
  id = "3",
  ground = "traversable",
  default_layer = 0,
  x = 8,
  y = 0,
  width = 16,
  height = 8,
  repeat_mode = "horizontal",
}

tile_pattern{
  id = "30",
  ground = "traversable",
  default_layer = 0,
  x = 32,
  y = 32,
  width = 16,
  height = 16,
  repeat_mode = "vertical",
}

tile_pattern{
  id = "31",
  ground = "traversable",
  default_layer = 0,
  x = 104,
  y = 104,
  width = 8,
  height = 8,
}

tile_pattern{
  id = "34",
  ground = "wall",
  default_layer = 0,
  x = 16,
  y = 64,
  width = 8,
  height = 8,
  repeat_mode = "none",
}

tile_pattern{
  id = "35",
  ground = "wall",
  default_layer = 0,
  x = 24,
  y = 64,
  width = 16,
  height = 8,
  repeat_mode = "horizontal",
}

tile_pattern{
  id = "36",
  ground = "wall",
  default_layer = 0,
  x = 40,
  y = 64,
  width = 8,
  height = 8,
  repeat_mode = "none",
}

tile_pattern{
  id = "37",
  ground = "wall",
  default_layer = 0,
  x = 16,
  y = 72,
  width = 8,
  height = 8,
  repeat_mode = "none",
}

tile_pattern{
  id = "38",
  ground = "wall",
  default_layer = 0,
  x = 24,
  y = 72,
  width = 16,
  height = 8,
  repeat_mode = "horizontal",
}

tile_pattern{
  id = "39",
  ground = "wall",
  default_layer = 0,
  x = 40,
  y = 72,
  width = 8,
  height = 8,
  repeat_mode = "none",
}

tile_pattern{
  id = "4",
  ground = "traversable",
  default_layer = 0,
  x = 24,
  y = 0,
  width = 8,
  height = 16,
  repeat_mode = "none",
}

tile_pattern{
  id = "40",
  ground = "ladder",
  default_layer = 0,
  x = 16,
  y = 40,
  width = 8,
  height = 8,
}

tile_pattern{
  id = "41",
  ground = "wall",
  default_layer = 0,
  x = 16,
  y = 80,
  width = 8,
  height = 8,
  repeat_mode = "none",
}

tile_pattern{
  id = "42",
  ground = "wall",
  default_layer = 0,
  x = 24,
  y = 80,
  width = 16,
  height = 8,
  repeat_mode = "horizontal",
}

tile_pattern{
  id = "43",
  ground = "wall",
  default_layer = 0,
  x = 40,
  y = 80,
  width = 8,
  height = 8,
  repeat_mode = "none",
}

tile_pattern{
  id = "48",
  ground = "wall",
  default_layer = 0,
  x = 16,
  y = 88,
  width = 8,
  height = 16,
  repeat_mode = "vertical",
}

tile_pattern{
  id = "49",
  ground = "wall",
  default_layer = 0,
  x = 24,
  y = 88,
  width = 16,
  height = 16,
}

tile_pattern{
  id = "5",
  ground = "traversable",
  default_layer = 0,
  x = 24,
  y = 16,
  width = 8,
  height = 16,
  repeat_mode = "vertical",
}

tile_pattern{
  id = "50",
  ground = "wall",
  default_layer = 0,
  x = 40,
  y = 88,
  width = 8,
  height = 16,
  repeat_mode = "vertical",
}

tile_pattern{
  id = "51",
  ground = "wall",
  default_layer = 0,
  x = 16,
  y = 104,
  width = 8,
  height = 8,
}

tile_pattern{
  id = "52",
  ground = "wall",
  default_layer = 0,
  x = 24,
  y = 104,
  width = 16,
  height = 8,
}

tile_pattern{
  id = "53",
  ground = "wall",
  default_layer = 0,
  x = 40,
  y = 104,
  width = 8,
  height = 8,
}

tile_pattern{
  id = "57",
  ground = "wall",
  default_layer = 0,
  x = 48,
  y = 56,
  width = 16,
  height = 16,
  repeat_mode = "none",
}

tile_pattern{
  id = "58",
  ground = "wall",
  default_layer = 0,
  x = 64,
  y = 56,
  width = 16,
  height = 16,
  repeat_mode = "horizontal",
}

tile_pattern{
  id = "59",
  ground = "wall",
  default_layer = 0,
  x = 80,
  y = 56,
  width = 16,
  height = 16,
  repeat_mode = "none",
}

tile_pattern{
  id = "6",
  ground = "traversable",
  default_layer = 0,
  x = 8,
  y = 8,
  width = 8,
  height = 8,
}

tile_pattern{
  id = "60",
  ground = "wall",
  default_layer = 0,
  x = 48,
  y = 72,
  width = 16,
  height = 16,
  repeat_mode = "vertical",
}

tile_pattern{
  id = "61",
  ground = "wall",
  default_layer = 0,
  x = 64,
  y = 72,
  width = 16,
  height = 16,
}

tile_pattern{
  id = "62",
  ground = "wall",
  default_layer = 0,
  x = 80,
  y = 72,
  width = 16,
  height = 16,
  repeat_mode = "vertical",
}

tile_pattern{
  id = "63",
  ground = "wall",
  default_layer = 0,
  x = 48,
  y = 88,
  width = 16,
  height = 8,
  repeat_mode = "horizontal",
}

tile_pattern{
  id = "66",
  ground = "wall",
  default_layer = 0,
  x = 80,
  y = 88,
  width = 16,
  height = 8,
  repeat_mode = "horizontal",
}

tile_pattern{
  id = "67",
  ground = "traversable",
  default_layer = 0,
  x = 48,
  y = 96,
  width = 16,
  height = 24,
  repeat_mode = "none",
}

tile_pattern{
  id = "68",
  ground = "traversable",
  default_layer = 0,
  x = 64,
  y = 88,
  width = 16,
  height = 32,
  repeat_mode = "none",
}

tile_pattern{
  id = "69",
  ground = "traversable",
  default_layer = 0,
  x = 80,
  y = 96,
  width = 16,
  height = 24,
  repeat_mode = "none",
}

tile_pattern{
  id = "7",
  ground = "traversable",
  default_layer = 0,
  x = 32,
  y = 0,
  width = 16,
  height = 16,
  repeat_mode = "none",
}

tile_pattern{
  id = "70",
  ground = "wall",
  default_layer = 0,
  x = 48,
  y = 120,
  width = 16,
  height = 16,
  repeat_mode = "none",
}

tile_pattern{
  id = "71",
  ground = "wall",
  default_layer = 0,
  x = 64,
  y = 120,
  width = 16,
  height = 16,
  repeat_mode = "horizontal",
}

tile_pattern{
  id = "72",
  ground = "wall",
  default_layer = 0,
  x = 80,
  y = 120,
  width = 16,
  height = 16,
  repeat_mode = "none",
}

tile_pattern{
  id = "73",
  ground = "traversable",
  default_layer = 0,
  x = 48,
  y = 136,
  width = 16,
  height = 16,
  repeat_mode = "none",
}

tile_pattern{
  id = "74",
  ground = "traversable",
  default_layer = 0,
  x = 80,
  y = 136,
  width = 16,
  height = 16,
  repeat_mode = "none",
}

tile_pattern{
  id = "75",
  ground = "traversable",
  default_layer = 0,
  x = 48,
  y = 152,
  width = 16,
  height = 16,
  repeat_mode = "none",
}

tile_pattern{
  id = "76",
  ground = "traversable",
  default_layer = 0,
  x = 80,
  y = 152,
  width = 16,
  height = 16,
  repeat_mode = "none",
}

tile_pattern{
  id = "77",
  ground = "traversable",
  default_layer = 0,
  x = 64,
  y = 136,
  width = 16,
  height = 16,
  repeat_mode = "none",
}

tile_pattern{
  id = "78",
  ground = "ladder",
  default_layer = 0,
  x = 64,
  y = 152,
  width = 16,
  height = 8,
  repeat_mode = "none",
}

tile_pattern{
  id = "79",
  ground = "ladder",
  default_layer = 0,
  x = 64,
  y = 160,
  width = 16,
  height = 8,
  repeat_mode = "vertical",
}

tile_pattern{
  id = "8",
  ground = "traversable",
  default_layer = 0,
  x = 0,
  y = 32,
  width = 16,
  height = 16,
  repeat_mode = "none",
}

tile_pattern{
  id = "80",
  ground = "traversable",
  default_layer = 0,
  x = 48,
  y = 168,
  width = 8,
  height = 8,
  repeat_mode = "horizontal",
}

tile_pattern{
  id = "81",
  ground = "traversable",
  default_layer = 0,
  x = 56,
  y = 168,
  width = 16,
  height = 8,
  repeat_mode = "none",
}

tile_pattern{
  id = "82",
  ground = "ladder",
  default_layer = 0,
  x = 72,
  y = 168,
  width = 16,
  height = 8,
  repeat_mode = "vertical",
}

tile_pattern{
  id = "83",
  ground = "traversable",
  default_layer = 0,
  x = 48,
  y = 176,
  width = 8,
  height = 16,
  repeat_mode = "none",
}

tile_pattern{
  id = "84",
  ground = "traversable",
  default_layer = 0,
  x = 56,
  y = 176,
  width = 16,
  height = 16,
  repeat_mode = "horizontal",
}

tile_pattern{
  id = "85",
  ground = "traversable",
  default_layer = 0,
  x = 72,
  y = 176,
  width = 8,
  height = 16,
  repeat_mode = "none",
}

tile_pattern{
  id = "86",
  ground = "traversable",
  default_layer = 0,
  x = 80,
  y = 176,
  width = 16,
  height = 16,
  repeat_mode = "none",
}

tile_pattern{
  id = "87",
  ground = "traversable",
  default_layer = 0,
  x = 96,
  y = 176,
  width = 16,
  height = 16,
  repeat_mode = "horizontal",
}

tile_pattern{
  id = "88",
  ground = "traversable",
  default_layer = 0,
  x = 112,
  y = 176,
  width = 16,
  height = 16,
  repeat_mode = "none",
}

tile_pattern{
  id = "89",
  ground = "traversable",
  default_layer = 0,
  x = { 96, 112, 128 },
  y = { 56, 56, 56 },
  width = 16,
  height = 16,
  frame_delay = 250,
  mirror_loop = true,
  repeat_mode = "horizontal",
}

tile_pattern{
  id = "9",
  ground = "traversable",
  default_layer = 0,
  x = 0,
  y = 48,
  width = 16,
  height = 16,
  repeat_mode = "none",
}

tile_pattern{
  id = "90",
  ground = "traversable",
  default_layer = 0,
  x = 96,
  y = 72,
  width = 8,
  height = 8,
}

tile_pattern{
  id = "91",
  ground = "traversable",
  default_layer = 0,
  x = 104,
  y = 72,
  width = 8,
  height = 8,
}

tile_pattern{
  id = "92",
  ground = "traversable",
  default_layer = 0,
  x = 112,
  y = 72,
  width = 8,
  height = 8,
}

tile_pattern{
  id = "93",
  ground = "traversable",
  default_layer = 0,
  x = 120,
  y = 72,
  width = 8,
  height = 8,
}

tile_pattern{
  id = "94",
  ground = "traversable",
  default_layer = 0,
  x = 128,
  y = 72,
  width = 8,
  height = 8,
}

tile_pattern{
  id = "95",
  ground = "traversable",
  default_layer = 0,
  x = 136,
  y = 72,
  width = 8,
  height = 8,
}

tile_pattern{
  id = "96",
  ground = "traversable",
  default_layer = 0,
  x = { 96, 112, 128 },
  y = { 80, 80, 80 },
  width = 16,
  height = 8,
  frame_delay = 250,
  mirror_loop = true,
  repeat_mode = "horizontal",
}

tile_pattern{
  id = "97",
  ground = "traversable",
  default_layer = 0,
  x = { 96, 112, 128 },
  y = { 88, 88, 88 },
  width = 16,
  height = 8,
  frame_delay = 250,
  mirror_loop = true,
  repeat_mode = "horizontal",
}

tile_pattern{
  id = "98",
  ground = "wall",
  default_layer = 0,
  x = 96,
  y = 112,
  width = 8,
  height = 8,
  repeat_mode = "none",
}

tile_pattern{
  id = "99",
  ground = "wall",
  default_layer = 0,
  x = 104,
  y = 112,
  width = 16,
  height = 8,
  repeat_mode = "horizontal",
}

tile_pattern{
  id = "wall_torch.1",
  ground = "traversable",
  default_layer = 0,
  x = { 48, 80, 112 },
  y = { 0, 0, 0 },
  width = 32,
  height = 24,
  frame_delay = 250,
  repeat_mode = "none",
}

tile_pattern{
  id = "wall_torch.2",
  ground = "traversable",
  default_layer = 0,
  x = { 48, 80, 112 },
  y = { 24, 24, 24 },
  width = 32,
  height = 32,
  frame_delay = 250,
  repeat_mode = "none",
}

